north_bridge/bin/north_bridge.vcd
$version Generated by VerilatedVcd $end
$timescale 1ps $end
 $scope module TOP $end
  $var wire 1 d clk $end
  $var wire 1 e nrst $end
  $var wire 30 f FSB_addr [31:2] $end
  $var wire 32 g FSB_data_i [31:0] $end
  $var wire 32 h FSB_data_o [31:0] $end
  $var wire 4 i FSB_NBE [3:0] $end
  $var wire 1 j FSB_W_NR $end
  $var wire 1 k FSB_M_NIO $end
  $var wire 1 l FSB_D_NC $end
  $scope module north_bridge $end
   $var wire 32 n FSB_ADDR_WIDTH [31:0] $end
   $var wire 32 n FSB_DATA_WIDTH [31:0] $end
   $var wire 1 d clk $end
   $var wire 1 e nrst $end
   $var wire 30 f FSB_addr [31:2] $end
   $var wire 32 g FSB_data_i [31:0] $end
   $var wire 32 h FSB_data_o [31:0] $end
   $var wire 4 i FSB_NBE [3:0] $end
   $var wire 1 j FSB_W_NR $end
   $var wire 1 k FSB_M_NIO $end
   $var wire 1 l FSB_D_NC $end
   $var wire 32 # M_RAM[0] [31:0] $end
   $var wire 32 $ M_RAM[1] [31:0] $end
   $var wire 32 % M_RAM[2] [31:0] $end
   $var wire 32 & M_RAM[3] [31:0] $end
   $var wire 32 ' M_RAM[4] [31:0] $end
   $var wire 32 ( M_RAM[5] [31:0] $end
   $var wire 32 ) M_RAM[6] [31:0] $end
   $var wire 32 * M_RAM[7] [31:0] $end
   $var wire 32 + M_RAM[8] [31:0] $end
   $var wire 32 , M_RAM[9] [31:0] $end
   $var wire 32 - M_RAM[10] [31:0] $end
   $var wire 32 . M_RAM[11] [31:0] $end
   $var wire 32 / M_RAM[12] [31:0] $end
   $var wire 32 0 M_RAM[13] [31:0] $end
   $var wire 32 1 M_RAM[14] [31:0] $end
   $var wire 32 2 M_RAM[15] [31:0] $end
   $var wire 32 3 M_RAM[16] [31:0] $end
   $var wire 32 4 M_RAM[17] [31:0] $end
   $var wire 32 5 M_RAM[18] [31:0] $end
   $var wire 32 6 M_RAM[19] [31:0] $end
   $var wire 32 7 M_RAM[20] [31:0] $end
   $var wire 32 8 M_RAM[21] [31:0] $end
   $var wire 32 9 M_RAM[22] [31:0] $end
   $var wire 32 : M_RAM[23] [31:0] $end
   $var wire 32 ; M_RAM[24] [31:0] $end
   $var wire 32 < M_RAM[25] [31:0] $end
   $var wire 32 = M_RAM[26] [31:0] $end
   $var wire 32 > M_RAM[27] [31:0] $end
   $var wire 32 ? M_RAM[28] [31:0] $end
   $var wire 32 @ M_RAM[29] [31:0] $end
   $var wire 32 A M_RAM[30] [31:0] $end
   $var wire 32 B M_RAM[31] [31:0] $end
   $var wire 32 C IO_RAM[0] [31:0] $end
   $var wire 32 D IO_RAM[1] [31:0] $end
   $var wire 32 E IO_RAM[2] [31:0] $end
   $var wire 32 F IO_RAM[3] [31:0] $end
   $var wire 32 G IO_RAM[4] [31:0] $end
   $var wire 32 H IO_RAM[5] [31:0] $end
   $var wire 32 I IO_RAM[6] [31:0] $end
   $var wire 32 J IO_RAM[7] [31:0] $end
   $var wire 32 K IO_RAM[8] [31:0] $end
   $var wire 32 L IO_RAM[9] [31:0] $end
   $var wire 32 M IO_RAM[10] [31:0] $end
   $var wire 32 N IO_RAM[11] [31:0] $end
   $var wire 32 O IO_RAM[12] [31:0] $end
   $var wire 32 P IO_RAM[13] [31:0] $end
   $var wire 32 Q IO_RAM[14] [31:0] $end
   $var wire 32 R IO_RAM[15] [31:0] $end
   $var wire 32 S IO_RAM[16] [31:0] $end
   $var wire 32 T IO_RAM[17] [31:0] $end
   $var wire 32 U IO_RAM[18] [31:0] $end
   $var wire 32 V IO_RAM[19] [31:0] $end
   $var wire 32 W IO_RAM[20] [31:0] $end
   $var wire 32 X IO_RAM[21] [31:0] $end
   $var wire 32 Y IO_RAM[22] [31:0] $end
   $var wire 32 Z IO_RAM[23] [31:0] $end
   $var wire 32 [ IO_RAM[24] [31:0] $end
   $var wire 32 \ IO_RAM[25] [31:0] $end
   $var wire 32 ] IO_RAM[26] [31:0] $end
   $var wire 32 ^ IO_RAM[27] [31:0] $end
   $var wire 32 _ IO_RAM[28] [31:0] $end
   $var wire 32 ` IO_RAM[29] [31:0] $end
   $var wire 32 a IO_RAM[30] [31:0] $end
   $var wire 32 b IO_RAM[31] [31:0] $end
   $var wire 3 m bus_cycle_ctrl [2:0] $end
   $var wire 32 c data_mask [31:0] $end
  $upscope $end
 $upscope $end
$enddefinitions $end


#0
b00000000000000000000000000000000 #
b00000000000000000000000000000000 $
b00000000000000000000000000000000 %
b00000000000000000000000000000000 &
b00000000000000000000000000000000 '
b00000000000000000000000000000000 (
b00000000000000000000000000000000 )
b00000000000000000000000000000000 *
b00000000000000000000000000000000 +
b00000000000000000000000000000000 ,
b00000000000000000000000000000000 -
b00000000000000000000000000000000 .
b00000000000000000000000000000000 /
b00000000000000000000000000000000 0
b00000000000000000000000000000000 1
b00000000000000000000000000000000 2
b00000000000000000000000000000000 3
b00000000000000000000000000000000 4
b00000000000000000000000000000000 5
b00000000000000000000000000000000 6
b00000000000000000000000000000000 7
b00000000000000000000000000000000 8
b00000000000000000000000000000000 9
b00000000000000000000000000000000 :
b00000000000000000000000000000000 ;
b00000000000000000000000000000000 <
b00000000000000000000000000000000 =
b00000000000000000000000000000000 >
b00000000000000000000000000000000 ?
b00000000000000000000000000000000 @
b00000000000000000000000000000000 A
b00000000000000000000000000000000 B
b00000000000000000000000000000000 C
b00000000000000000000000000000000 D
b00000000000000000000000000000000 E
b00000000000000000000000000000000 F
b00000000000000000000000000000000 G
b00000000000000000000000000000000 H
b00000000000000000000000000000000 I
b00000000000000000000000000000000 J
b00000000000000000000000000000000 K
b00000000000000000000000000000000 L
b00000000000000000000000000000000 M
b00000000000000000000000000000000 N
b00000000000000000000000000000000 O
b00000000000000000000000000000000 P
b00000000000000000000000000000000 Q
b00000000000000000000000000000000 R
b00000000000000000000000000000000 S
b00000000000000000000000000000000 T
b00000000000000000000000000000000 U
b00000000000000000000000000000000 V
b00000000000000000000000000000000 W
b00000000000000000000000000000000 X
b00000000000000000000000000000000 Y
b00000000000000000000000000000000 Z
b00000000000000000000000000000000 [
b00000000000000000000000000000000 \
b00000000000000000000000000000000 ]
b00000000000000000000000000000000 ^
b00000000000000000000000000000000 _
b00000000000000000000000000000000 `
b00000000000000000000000000000000 a
b00000000000000000000000000000000 b
b00000000000000000000000000000000 c
1d
0e
b000000000000000000000000000000 f
b00000000000000000000000000000000 g
b00000000000000000000000000000000 h
b1111 i
0j
0k
0l
b000 m
b00000000000000000000000000100000 n
#2
0d
#4
1d
#6
0d
#8
1d
#10
0d
#12
1d
#14
0d
#16
1d
#18
0d
#20
1d
#21
1e
#22
0d
#24
1d
#26
0d
#28
1d
#30
0d
#32
1d
#34
0d
#36
1d
#38
0d
#39
b000000000000000000000000000001 f
b11011110101011011011111011101111 g
b0000 i
1j
1k
1l
b111 m
#40
b11111111111111111111111111111111 c
1d
#42
0d
#43
b00000000000000000000000000000000 g
0j
b011 m
#44
1d
#46
0d
#48
1d
#50
0d
#52
1d
#54
0d
#56
1d
#58
0d
#60
1d
#62
0d
#64
1d
#66
0d
#68
1d
#70
0d
#72
1d
#74
0d
#76
1d
#78
0d
#79
b11111110111010111010010101010101 g
b0001 i
1j
0k
b101 m
#80
b11111110111010111010010101010101 D
b11111111111111111111111100000000 c
1d
#82
0d
#83
b00000000000000000000000000000000 g
b0000 i
0j
b001 m
#84
b11111111111111111111111111111111 c
1d
b11111110111010111010010100000000 h
#86
0d
#88
1d
b11111110111010111010010101010101 h
